{"page":1,"total_results":152,"total_pages":8,"results":[{"vote_count":6158,"id":920,"video":false,"vote_average":6.7,"title":"Cars","popularity":16.128,"poster_path":"\/5damnMcRFKSjhCirgX3CMa88MBj.jpg","original_language":"en","original_title":"Cars","genre_ids":[16,12,35,10751],"backdrop_path":"\/a1MlbLBk5Sy6YvMbSuKfwGlDVlb.jpg","adult":false,"overview":"Lightning McQueen, a hotshot rookie race car driven to succeed, discovers that life is about the journey, not the finish line, when he finds himself unexpectedly detoured in the sleepy Route 66 town of Radiator Springs. On route across the country to the big Piston Cup Championship in California to compete against two seasoned pros, McQueen gets to know the town's offbeat characters.","release_date":"2006-06-08"},{"vote_count":2044,"id":260514,"video":false,"vote_average":6.8,"title":"Cars 3","popularity":15.249,"poster_path":"\/fyy1nDC8wm553FCiBDojkJmKLCs.jpg","original_language":"en","original_title":"Cars 3","genre_ids":[12,16,35,10751],"backdrop_path":"\/36h3Sw4y4COqMeNg31ST0h5xRae.jpg","adult":false,"overview":"Blindsided by a new generation of blazing-fast racers, the legendary Lightning McQueen is suddenly pushed out of the sport he loves. To get back in the game, he will need the help of an eager young race technician with her own plan to win, inspiration from the late Fabulous Hudson Hornet, and a few unexpected turns. Proving that #95 isn't through yet will test the heart of a champion on Piston Cup Racing’s biggest stage!","release_date":"2017-06-15"},{"vote_count":3322,"id":49013,"video":false,"vote_average":5.9,"title":"Cars 2","popularity":11.058,"poster_path":"\/AblhtULOVtrkSnFxRPQ8gBemxw9.jpg","original_language":"en","original_title":"Cars 2","genre_ids":[16,10751,12,35],"backdrop_path":"\/jEcmZhtJkZQc6ta2vzBd9CU7GIx.jpg","adult":false,"overview":"Star race car Lightning McQueen and his pal Mater head overseas to compete in the World Grand Prix race. But the road to the championship becomes rocky as Mater gets caught up in an intriguing adventure of his own: international espionage.","release_date":"2011-06-11"},{"vote_count":90,"id":14475,"video":false,"vote_average":6.6,"title":"Used Cars","popularity":4.143,"poster_path":"\/h9hqesyEBaag8ZkgrBSaUGgGNFF.jpg","original_language":"en","original_title":"Used Cars","genre_ids":[28,35],"backdrop_path":"\/qKnki6R8UoRy8e7Q0TkDnXNssT5.jpg","adult":false,"overview":"When the owner of a struggling used car lot is killed, it's up to the lot's hot-shot salesman to save the property from falling into the hands of the owner's ruthless brother and used-car rival.","release_date":"1980-07-11"},{"vote_count":171,"id":11091,"video":false,"vote_average":6.4,"title":"Riding in Cars with Boys","popularity":5.961,"poster_path":"\/m8sA3GNlEnrtK5Xlvsn2WRHp2qv.jpg","original_language":"en","original_title":"Riding in Cars with Boys","genre_ids":[35,18,10749],"backdrop_path":"\/u7sMJRm4Y2B31HEknzgmATKxxGr.jpg","adult":false,"overview":"A single mother, with dreams of becoming a writer, has a son at the age of 15 in 1965, and goes through a failed marriage with the drug-addicted father.","release_date":"2001-10-19"},{"vote_count":0,"id":493806,"video":false,"vote_average":0,"title":"People in Cars","popularity":3.213,"poster_path":"\/2t07ZTDkMdfXDOmi45N6j1YvaF3.jpg","original_language":"sv","original_title":"People in Cars","genre_ids":[18],"backdrop_path":null,"adult":false,"overview":"Everyday conversations inside cars about love, relationships and mistakes.","release_date":"2017-03-17"},{"vote_count":19,"id":345874,"video":false,"vote_average":6.6,"title":"Stealing Cars","popularity":1.83,"poster_path":"\/wBbrkbKpMzeg0CqvOl5cBza0fIB.jpg","original_language":"en","original_title":"Stealing Cars","genre_ids":[18],"backdrop_path":"\/lIoDGj7bSoGdnDHd7NyYfyZev6J.jpg","adult":false,"overview":"A rebellious teenager navigates his way through the juvenile court system.","release_date":"2016-04-05"},{"vote_count":12,"id":51896,"video":false,"vote_average":6.1,"title":"Two Cars, One Night","popularity":1.572,"poster_path":"\/oDinmvEfKkTTYzvPc4jDCJAZZth.jpg","original_language":"en","original_title":"Two Cars, One Night","genre_ids":[18,35],"backdrop_path":"\/n2WAUX8kWSQs9NUIKx9ikHVCvJK.jpg","adult":false,"overview":"Sometimes first love is found in the most unlikely of places, like in the carpark outside the Te Kaha pub.","release_date":"2003-01-01"},{"vote_count":24,"id":438788,"video":true,"vote_average":6.1,"title":"Cars Toon Mater's Tall Tales","popularity":2.938,"poster_path":"\/yiAhHVXMXQREPgiCBEU7AbQOSE7.jpg","original_language":"en","original_title":"Cars Toon Mater's Tall Tales","genre_ids":[16,35,10751],"backdrop_path":"\/u9Hm0dZgzdGBUugMjBShyIDxRhN.jpg","adult":false,"overview":"Mater the tow truck travels from country to country as he retells his infamous but unbelievable stories.","release_date":"2008-11-01"},{"vote_count":0,"id":485621,"video":false,"vote_average":0,"title":"Cars D'oeuvres","popularity":0.834,"poster_path":"\/ppqxzUP0XmllXD8bQGmggY6hCEL.jpg","original_language":"en","original_title":"Cars D'oeuvres","genre_ids":[],"backdrop_path":null,"adult":false,"overview":"Characters from Pixar's Cars 3 participate in goofy antics.","release_date":"2017-11-07"},{"vote_count":1,"id":271434,"video":false,"vote_average":5,"title":"Women Cars Villas Money","popularity":0.87,"poster_path":"\/1BUku7hvrsbHbSd3KmFLNLgVaX9.jpg","original_language":"fr","original_title":"FVVA: Femme, villa, voiture, argent","genre_ids":[35,18],"backdrop_path":null,"adult":false,"overview":"Ali is the image of modern Africa. He happily returns from a football match on his motorbike but a nasty surprise is waiting for him at his parents' home: he finds Haoua, his bride-to-be, waiting for him. The wedding is celebrated shortly afterwards and the two begin living together under the same roof. They are strangers but cannot stand each other. Haoua is the classic traditional woman who has just arrived from the village, God-fearing and faithful to the laws of tradition. Ali's friends advise him to look for a second wife. He meets Henriette, an uninhibited and provocative city girl, the woman of his dreams. To meet Henriette's constant requests, Ali 'borrows' some money from the coffers of commander Soleymane, but he is discovered and ends up in prison. Henriette is furious and leaves him, whilst Haoua cries for him in despair.","release_date":"1972-01-02"},{"vote_count":25,"id":62761,"video":false,"vote_average":5.2,"title":"The Cars That Ate Paris","popularity":1.471,"poster_path":"\/rnBOKWZq3i0WOSDvVucNAnkTlEz.jpg","original_language":"en","original_title":"The Cars That Ate Paris","genre_ids":[35,27,9648,53],"backdrop_path":"\/wqcrfRJwYDxOAM3XkGbZveaWT0p.jpg","adult":false,"overview":"After the death of his brother on the road, unemployed and unstable drifter Arthur Waldo stays for a while in the rural Australian town of Paris as the guest of the mayor, who hopes he will become a permanent member of the Paris population. Arthur soon realizes the quaint hamlet has a sinister secret: they orchestrate car accidents and rob the victims. Survivors are brought to the local hospital, lobotomized, and used for a local doctor's experiments.","release_date":"1974-10-10"},{"vote_count":0,"id":157423,"video":false,"vote_average":0,"title":"The World's Greatest Rally Cars","popularity":1.4,"poster_path":"\/rWFF4UA5Lu9Gu3prfAa4qIkAyYL.jpg","original_language":"en","original_title":"The World's Greatest Rally Cars","genre_ids":[],"backdrop_path":"\/jNwnMuEqlhz9RdpyRjJBOAnL4wI.jpg","adult":false,"overview":"A jam-packed overview of the cars that have transformed the world rally scene! Ace driver Colin McRae talks about the modern giants of the sport, while Markku Alen, Stig Blomqvist, Hannu Mikkola and Bjorn Waldegaard demonstrate the awesome Group B cars of the Eighties. Action footage of the Audi Quattro, Lancia Stratos, Monte Carlo 037 and Delta Integrale plus Ford’s RS200, Escort MkI and II, Cosworth and Focus - and the mighty Subaru Impreza and Mitsubishi Evo feature. Extras exclusive to DVD include info on over 25 rally cars, fact files on famous drivers and an absolutely stunning rally on-board experience that will leave you gasping!.","release_date":"2000-09-12"},{"vote_count":2,"id":38338,"video":false,"vote_average":5.5,"title":"Hot Cars","popularity":0.714,"poster_path":"\/vIzyKpDIrfSYb3Zx7z8mRq4tlyd.jpg","original_language":"en","original_title":"Hot Cars","genre_ids":[28,53],"backdrop_path":"\/2nluX5M6ROQ0Ia4GI6iXTk7tsey.jpg","adult":false,"overview":"Story of a salesman lured into the \"hot car\" racket.","release_date":"1956-01-01"},{"vote_count":1,"id":424689,"video":false,"vote_average":9.5,"title":"Cars 3","popularity":0.6,"poster_path":"\/4hw5PghU2nOWNAr4CskRVM9ehrA.jpg","original_language":"en","original_title":"Cars 3","genre_ids":[27],"backdrop_path":null,"adult":false,"overview":"A car salesman must sell a Mercury Topaz in order to stop the devil from taking his soul.","release_date":"2009-01-26"},{"vote_count":0,"id":522584,"video":false,"vote_average":0,"title":"8½ Cars","popularity":0.6,"poster_path":"\/xHQu2LkgNHU7nscaAgUG9nrH2UL.jpg","original_language":"en","original_title":"8½ Cars","genre_ids":[35],"backdrop_path":null,"adult":false,"overview":"An satirical exploration of amateur film-making covering topics of art, allusion, and aimlessness.","release_date":"2018-05-06"},{"vote_count":3,"id":248847,"video":false,"vote_average":6,"title":"Stone Cars","popularity":0.6,"poster_path":"\/xtkCzg44iOEMBAwq3eACKCU1gHR.jpg","original_language":"en","original_title":"Stone Cars","genre_ids":[18],"backdrop_path":null,"adult":false,"overview":"A teenage girl growing up in dangerous Khayelitsha township is faced with a difficult decision in the wake of a traumatic event. Olwethu Anita April and Lungisani Dyalvani star in this short film.","release_date":"2014-05-23"},{"vote_count":0,"id":459934,"video":false,"vote_average":0,"title":"Fast Cars","popularity":0.6,"poster_path":null,"original_language":"en","original_title":"Fast Cars","genre_ids":[99],"backdrop_path":null,"adult":false,"overview":"A Documentary by Beyond Productions","release_date":""},{"vote_count":1,"id":147771,"video":false,"vote_average":4,"title":"Killing Cars","popularity":0.6,"poster_path":"\/elr5ORMIWRPjUkeqs1f3akW8Wgs.jpg","original_language":"de","original_title":"Killing Cars","genre_ids":[53,28],"backdrop_path":"\/oGRGAPkoVfFWohAaQs1LxQGLq28.jpg","adult":false,"overview":"In a complex story of automotive intrigue, oil barons, corporate finance, and international villainy, the inventor of an environmentally friendly car powered by energy cells becomes the target of killers. After Ralph Korda has given his patented worldcar to a German automaker for testing, he is confronted by ominous men, eager to get their hands on his patent. Evil Arab petroleum lords also want to stop this threat to the gasoline market any way they can.","release_date":"1986-02-13"},{"vote_count":2,"id":104264,"video":false,"vote_average":7.5,"title":"Calling All Police Cars","popularity":0.6,"poster_path":"\/sjHvQTsbSUMKZ3Vszu2G5QwMDr2.jpg","original_language":"it","original_title":"...a tutte le auto della polizia...","genre_ids":[],"backdrop_path":"\/edzEgWBuhPAmZjm3B0k4jcQ8cBn.jpg","adult":false,"overview":"After the daughter of the prominent professor Icardi goes missing an investigation is quickly commenced, much to the chagrin of commisioner Solmi who thinks Icardi is receiving benefits because of his status and that instead the professor should be treated like anyone else would have been treated in his place. The girl is soon found, murdered, shot in the head. The investigation gets under way and with only a few, thin, leads to go by, it's not going to be an open and shut case...","release_date":"1975-08-28"}]}